sysprueba/wave.vcd
$date
     Mar 09, 2023       07:02:39
$end

$version
 SystemC 2.3.4-Accellera --- Jan  5 2023 01:04:08
$end

$timescale
     1 ps
$end

$scope module SystemC $end
$var wire    1  aaaaa  clk       $end
$var wire   32  aaaab  addr_bo [31:0]  $end
$var real    1  aaaac  data_bi       $end
$var real    1  aaaad  data_bo       $end
$var wire    1  aaaae  wr       $end
$var wire    1  aaaaf  rd       $end
$upscope $end
$enddefinitions  $end

$comment
All initial values are dumped below at time 0 sec = 0 timescale units.
$end

$dumpvars
1aaaaa
b0 aaaab
r0 aaaac
r0 aaaad
0aaaae
0aaaaf
$end

#5000
0aaaaa

#10000
1aaaaa
r0.05666109919548035 aaaad
1aaaae

#15000
0aaaaa

#20000
1aaaaa
0aaaae

#25000
0aaaaa

#30000
1aaaaa
b1 aaaab
r0.1566720008850098 aaaad
1aaaae

#35000
0aaaaa

#40000
1aaaaa
0aaaae

#45000
0aaaaa

#50000
1aaaaa
b10 aaaab
r0.06049659848213196 aaaad
1aaaae

#55000
0aaaaa

#60000
1aaaaa
0aaaae

#65000
0aaaaa

#70000
1aaaaa
b11 aaaab
r-0.1572899967432022 aaaad
1aaaae

#75000
0aaaaa

#80000
1aaaaa
0aaaae

#85000
0aaaaa

#90000
1aaaaa
b100 aaaab
r0.1079230010509491 aaaad
1aaaae

#95000
0aaaaa

#100000
1aaaaa
0aaaae

#105000
0aaaaa

#110000
1aaaaa
b101 aaaab
r-0.04151570051908493 aaaad
1aaaae

#115000
0aaaaa

#120000
1aaaaa
0aaaae

#125000
0aaaaa

#130000
1aaaaa
b110 aaaab
r0.06029760092496872 aaaad
1aaaae

#135000
0aaaaa

#140000
1aaaaa
0aaaae

#145000
0aaaaa

#150000
1aaaaa
b111 aaaab
r0.1494899988174438 aaaad
1aaaae

#155000
0aaaaa

#160000
1aaaaa
0aaaae

#165000
0aaaaa

#170000
1aaaaa
b1000 aaaab
r-0.1618070006370544 aaaad
1aaaae

#175000
0aaaaa

#180000
1aaaaa
0aaaae

#185000
0aaaaa

#190000
1aaaaa
b1001 aaaab
r-0.2934739887714386 aaaad
1aaaae

#195000
0aaaaa

#200000
1aaaaa
0aaaae

#205000
0aaaaa

#210000
1aaaaa
b1010 aaaab
r-0.1149789988994598 aaaad
1aaaae

#215000
0aaaaa

#220000
1aaaaa
0aaaae

#225000
0aaaaa

#230000
1aaaaa
b1011 aaaab
r-0.1271000057458878 aaaad
1aaaae

#235000
0aaaaa

#240000
1aaaaa
0aaaae

#245000
0aaaaa

#250000
1aaaaa
b1100 aaaab
r-0.06891749799251556 aaaad
1aaaae

#255000
0aaaaa

#260000
1aaaaa
0aaaae

#265000
0aaaaa

#270000
1aaaaa
b1101 aaaab
r0.2542969882488251 aaaad
1aaaae

#275000
0aaaaa

#280000
1aaaaa
0aaaae

#285000
0aaaaa

#290000
1aaaaa
b1110 aaaab
r0.1285250037908554 aaaad
1aaaae

#295000
0aaaaa

#300000
1aaaaa
0aaaae

#305000
0aaaaa

#310000
1aaaaa
b1111 aaaab
r0.001968919998034835 aaaad
1aaaae

#315000
0aaaaa

#320000
1aaaaa
0aaaae

#325000
0aaaaa

#330000
1aaaaa
b10000 aaaab
r-0.1484130024909973 aaaad
1aaaae

#335000
0aaaaa

#340000
1aaaaa
0aaaae

#345000
0aaaaa

#350000
1aaaaa
b10001 aaaab
r-0.02518160082399845 aaaad
1aaaae

#355000
0aaaaa

#360000
1aaaaa
0aaaae

#365000
0aaaaa

#370000
1aaaaa
b10010 aaaab
r0.06838809698820114 aaaad
1aaaae

#375000
0aaaaa

#380000
1aaaaa
0aaaae

#385000
0aaaaa

#390000
1aaaaa
b10011 aaaab
r0.2470089942216873 aaaad
1aaaae

#395000
0aaaaa

#400000
1aaaaa
0aaaae

#405000
0aaaaa

#410000
1aaaaa
b10100 aaaab
r-0.1638820022344589 aaaad
1aaaae

#415000
0aaaaa

#420000
1aaaaa
0aaaae

#425000
0aaaaa

#430000
1aaaaa
b10101 aaaab
r-0.09506519883871078 aaaad
1aaaae

#435000
0aaaaa

#440000
1aaaaa
0aaaae

#445000
0aaaaa

#450000
1aaaaa
b10110 aaaab
r-0.09214620292186737 aaaad
1aaaae

#455000
0aaaaa

#460000
1aaaaa
0aaaae

#465000
0aaaaa

#470000
1aaaaa
b10111 aaaab
r0.05156400054693222 aaaad
1aaaae

#475000
0aaaaa

#480000
1aaaaa
0aaaae

#485000
0aaaaa

#490000
1aaaaa
b11000 aaaab
r0.05996200069785118 aaaad
1aaaae

#495000
0aaaaa

#500000
1aaaaa
0aaaae

#505000
0aaaaa

#510000
1aaaaa
b11001 aaaab
r0.1558559983968735 aaaad
1aaaae

#515000
0aaaaa

#520000
1aaaaa
0aaaae

#525000
0aaaaa

#530000
1aaaaa
b11010 aaaab
r-0.01370770018547773 aaaad
1aaaae

#535000
0aaaaa

#540000
1aaaaa
0aaaae

#545000
0aaaaa

#550000
1aaaaa
b11011 aaaab
r0.04985639825463295 aaaad
1aaaae

#555000
0aaaaa

#560000
1aaaaa
0aaaae

#565000
0aaaaa

#570000
1aaaaa
b11100 aaaab
r0.3327710032463074 aaaad
1aaaae

#575000
0aaaaa

#580000
1aaaaa
0aaaae

#585000
0aaaaa

#590000
1aaaaa
b11101 aaaab
r-0.02931440062820911 aaaad
1aaaae

#595000
0aaaaa

#600000
1aaaaa
0aaaae

#605000
0aaaaa

#610000
1aaaaa
b11110 aaaab
r-0.2748990058898926 aaaad
1aaaae

#615000
0aaaaa

#620000
1aaaaa
0aaaae

#625000
0aaaaa

#630000
1aaaaa
b11111 aaaab
r-0.1839639991521835 aaaad
1aaaae

#635000
0aaaaa

#640000
1aaaaa
0aaaae

#645000
0aaaaa

#650000
1aaaaa
b100000 aaaab
r-0.06842000037431717 aaaad
1aaaae

#655000
0aaaaa

#660000
1aaaaa
0aaaae

#665000
0aaaaa

#670000
1aaaaa
b100001 aaaab
r0.009428249672055244 aaaad
1aaaae

#675000
0aaaaa

#680000
1aaaaa
0aaaae

#685000
0aaaaa

#690000
1aaaaa
b100010 aaaab
r0.1278830021619797 aaaad
1aaaae

#695000
0aaaaa

#700000
1aaaaa
0aaaae

#705000
0aaaaa

#710000
1aaaaa
b100011 aaaab
r-0.1675640046596527 aaaad
1aaaae

#715000
0aaaaa

#720000
1aaaaa
0aaaae

#725000
0aaaaa

#730000
1aaaaa
b100100 aaaab
r-0.1362929940223694 aaaad
1aaaae

#735000
0aaaaa

#740000
1aaaaa
0aaaae

#745000
0aaaaa

#750000
1aaaaa
b100101 aaaab
r-0.1708939969539642 aaaad
1aaaae

#755000
0aaaaa

#760000
1aaaaa
0aaaae

#765000
0aaaaa

#770000
1aaaaa
b100110 aaaab
r-0.6765429973602295 aaaad
1aaaae

#775000
0aaaaa

#780000
1aaaaa
0aaaae

#785000
0aaaaa

#790000
1aaaaa
b100111 aaaab
r-0.3086589872837067 aaaad
1aaaae

#795000
0aaaaa

#800000
1aaaaa
0aaaae

#805000
0aaaaa

#810000
1aaaaa
b101000 aaaab
r0.1601109951734543 aaaad
1aaaae

#815000
0aaaaa

#820000
1aaaaa
0aaaae

#825000
0aaaaa

#830000
1aaaaa
b101001 aaaab
r0.04342459887266159 aaaad
1aaaae

#835000
0aaaaa

#840000
1aaaaa
0aaaae

#845000
0aaaaa

#850000
1aaaaa
b101010 aaaab
r-0.6850039958953857 aaaad
1aaaae

#855000
0aaaaa

#860000
1aaaaa
0aaaae

#865000
0aaaaa

#870000
1aaaaa
b101011 aaaab
r0.2178419977426529 aaaad
1aaaae

#875000
0aaaaa

#880000
1aaaaa
0aaaae

#885000
0aaaaa

#890000
1aaaaa
b101100 aaaab
r0.2459170073270798 aaaad
1aaaae

#895000
0aaaaa

#900000
1aaaaa
0aaaae

#905000
0aaaaa

#910000
1aaaaa
b101101 aaaab
r0.1028200015425682 aaaad
1aaaae

#915000
0aaaaa

#920000
1aaaaa
0aaaae

#925000
0aaaaa

#930000
1aaaaa
b101110 aaaab
r0.04957849904894829 aaaad
1aaaae

#935000
0aaaaa

#940000
1aaaaa
0aaaae

#945000
0aaaaa

#950000
1aaaaa
b101111 aaaab
r0.08022840321063995 aaaad
1aaaae

#955000
0aaaaa

#960000
1aaaaa
0aaaae

#965000
0aaaaa

#970000
1aaaaa
b110000 aaaab
r0.1602279990911484 aaaad
1aaaae

#975000
0aaaaa

#980000
1aaaaa
0aaaae

#985000
0aaaaa

#990000
1aaaaa
b110001 aaaab
r-0.1736190021038055 aaaad
1aaaae

#995000
0aaaaa

#1000000
1aaaaa
0aaaae

#1005000
0aaaaa

#1010000
1aaaaa
b110010 aaaab
r0.1239800006151199 aaaad
1aaaae

#1015000
0aaaaa

#1020000
1aaaaa
0aaaae

#1025000
0aaaaa

#1030000
1aaaaa
b110011 aaaab
r0.05839459970593452 aaaad
1aaaae

#1035000
0aaaaa

#1040000
1aaaaa
0aaaae

#1045000
0aaaaa

#1050000
1aaaaa
b110100 aaaab
r0.2612729966640472 aaaad
1aaaae

#1055000
0aaaaa

#1060000
1aaaaa
0aaaae

#1065000
0aaaaa

#1070000
1aaaaa
b110101 aaaab
r0.0709431990981102 aaaad
1aaaae

#1075000
0aaaaa

#1080000
1aaaaa
0aaaae

#1085000
0aaaaa

#1090000
1aaaaa
b110110 aaaab
r-0.07097680121660233 aaaad
1aaaae

#1095000
0aaaaa

#1100000
1aaaaa
0aaaae

#1105000
0aaaaa

#1110000
1aaaaa
b110111 aaaab
r0.2002640068531036 aaaad
1aaaae

#1115000
0aaaaa

#1120000
1aaaaa
0aaaae

#1125000
0aaaaa

#1130000
1aaaaa
b111000 aaaab
r0.2010370045900345 aaaad
1aaaae

#1135000
0aaaaa

#1140000
1aaaaa
0aaaae

#1145000
0aaaaa

#1150000
1aaaaa
b111001 aaaab
r0.05953840166330338 aaaad
1aaaae

#1155000
0aaaaa

#1160000
1aaaaa
0aaaae

#1165000
0aaaaa

#1170000
1aaaaa
b111010 aaaab
r0.2639470100402832 aaaad
1aaaae

#1175000
0aaaaa

#1180000
1aaaaa
0aaaae

#1185000
0aaaaa

#1190000
1aaaaa
b111011 aaaab
r-0.008249919861555099 aaaad
1aaaae

#1195000
0aaaaa

#1200000
1aaaaa
0aaaae

#1205000
0aaaaa

#1210000
1aaaaa
b111100 aaaab
r0.2036280035972595 aaaad
1aaaae

#1215000
0aaaaa

#1220000
1aaaaa
0aaaae

#1225000
0aaaaa

#1230000
1aaaaa
b111101 aaaab
r-0.06519030034542084 aaaad
1aaaae

#1235000
0aaaaa

#1240000
1aaaaa
0aaaae

#1245000
0aaaaa

#1250000
1aaaaa
b111110 aaaab
r0.02912580035626888 aaaad
1aaaae

#1255000
0aaaaa

#1260000
1aaaaa
0aaaae

#1265000
0aaaaa

#1270000
1aaaaa
b111111 aaaab
r-0.2057300060987473 aaaad
1aaaae

#1275000
0aaaaa

#1280000
1aaaaa
0aaaae

#1285000
0aaaaa

#1290000
1aaaaa
b1000000 aaaab
r0.4100050032138824 aaaad
1aaaae

#1295000
0aaaaa

#1300000
1aaaaa
0aaaae

#1305000
0aaaaa

#1310000
1aaaaa
b1000001 aaaab
r0.1643999963998795 aaaad
1aaaae

#1315000
0aaaaa

#1320000
1aaaaa
0aaaae

#1325000
0aaaaa

#1330000
1aaaaa
b1000010 aaaab
r-0.4064309895038605 aaaad
1aaaae

#1335000
0aaaaa

#1340000
1aaaaa
0aaaae

#1345000
0aaaaa

#1350000
1aaaaa
b1000011 aaaab
r0.2365459948778152 aaaad
1aaaae

#1355000
0aaaaa

#1360000
1aaaaa
0aaaae

#1365000
0aaaaa

#1370000
1aaaaa
b1000100 aaaab
r0.06229620054364204 aaaad
1aaaae

#1375000
0aaaaa

#1380000
1aaaaa
0aaaae

#1385000
0aaaaa

#1390000
1aaaaa
b1000101 aaaab
r0.1484200060367584 aaaad
1aaaae

#1395000
0aaaaa

#1400000
1aaaaa
0aaaae

#1405000
0aaaaa

#1410000
1aaaaa
b1000110 aaaab
r-0.3582890033721924 aaaad
1aaaae

#1415000
0aaaaa

#1420000
1aaaaa
0aaaae

#1425000
0aaaaa

#1430000
1aaaaa
b1000111 aaaab
r0.3563959896564484 aaaad
1aaaae

#1435000
0aaaaa

#1440000
1aaaaa
0aaaae

#1445000
0aaaaa

#1450000
1aaaaa
b1001000 aaaab
r-0.1382279992103577 aaaad
1aaaae

#1455000
0aaaaa

#1460000
1aaaaa
0aaaae

#1465000
0aaaaa

#1470000
1aaaaa
b1001001 aaaab
r-0.07974059879779816 aaaad
1aaaae

#1475000
0aaaaa

#1480000
1aaaaa
0aaaae

#1485000
0aaaaa

#1490000
1aaaaa
b1001010 aaaab
r-0.08732689917087555 aaaad
1aaaae

#1495000
0aaaaa

#1500000
1aaaaa
0aaaae

#1505000
0aaaaa

#1510000
1aaaaa
b1001011 aaaab
r0.1984640061855316 aaaad
1aaaae

#1515000
0aaaaa

#1520000
1aaaaa
0aaaae

#1525000
0aaaaa

#1530000
1aaaaa
b1001100 aaaab
r0.1628199964761734 aaaad
1aaaae

#1535000
0aaaaa

#1540000
1aaaaa
0aaaae

#1545000
0aaaaa

#1550000
1aaaaa
b1001101 aaaab
r-0.1644349992275238 aaaad
1aaaae

#1555000
0aaaaa

#1560000
1aaaaa
0aaaae

#1565000
0aaaaa

#1570000
1aaaaa
b1001110 aaaab
r-0.2194070070981979 aaaad
1aaaae

#1575000
0aaaaa

#1580000
1aaaaa
0aaaae

#1585000
0aaaaa

#1590000
1aaaaa
b1001111 aaaab
r0.03504680097103119 aaaad
1aaaae

#1595000
0aaaaa

#1600000
1aaaaa
0aaaae

#1605000
0aaaaa

#1610000
1aaaaa
b1010000 aaaab
r0.08986689895391464 aaaad
1aaaae

#1615000
0aaaaa

#1620000
1aaaaa
0aaaae

#1625000
0aaaaa

#1630000
1aaaaa
b1010001 aaaab
r-0.2245370000600815 aaaad
1aaaae

#1635000
0aaaaa

#1640000
1aaaaa
0aaaae

#1645000
0aaaaa

#1650000
1aaaaa
b1010010 aaaab
r0.2700720131397247 aaaad
1aaaae

#1655000
0aaaaa

#1660000
1aaaaa
0aaaae

#1665000
0aaaaa

#1670000
1aaaaa
b1010011 aaaab
r-0.05203619971871376 aaaad
1aaaae

#1675000
0aaaaa

#1680000
1aaaaa
0aaaae

#1685000
0aaaaa

#1690000
1aaaaa
b1010100 aaaab
r0.1440310031175613 aaaad
1aaaae

#1695000
0aaaaa

#1700000
1aaaaa
0aaaae

#1705000
0aaaaa

#1710000
1aaaaa
b1010101 aaaab
r-0.1959580034017563 aaaad
1aaaae

#1715000
0aaaaa

#1720000
1aaaaa
0aaaae

#1725000
0aaaaa

#1730000
1aaaaa
b1010110 aaaab
r-0.09042199701070786 aaaad
1aaaae

#1735000
0aaaaa

#1740000
1aaaaa
0aaaae

#1745000
0aaaaa

#1750000
1aaaaa
b1010111 aaaab
r0.4376910030841827 aaaad
1aaaae

#1755000
0aaaaa

#1760000
1aaaaa
0aaaae

#1765000
0aaaaa

#1770000
1aaaaa
b1011000 aaaab
r0.07149080187082291 aaaad
1aaaae

#1775000
0aaaaa

#1780000
1aaaaa
0aaaae

#1785000
0aaaaa

#1790000
1aaaaa
b1011001 aaaab
r0.1575639992952347 aaaad
1aaaae

#1795000
0aaaaa

#1800000
1aaaaa
0aaaae

#1805000
0aaaaa

#1810000
1aaaaa
b1011010 aaaab
r-0.1336259990930557 aaaad
1aaaae

#1815000
0aaaaa

#1820000
1aaaaa
0aaaae

#1825000
0aaaaa

#1830000
1aaaaa
b1011011 aaaab
r0.3749650120735168 aaaad
1aaaae

#1835000
0aaaaa

#1840000
1aaaaa
0aaaae

#1845000
0aaaaa

#1850000
1aaaaa
b1011100 aaaab
r0.1596409976482391 aaaad
1aaaae

#1855000
0aaaaa

#1860000
1aaaaa
0aaaae

#1865000
0aaaaa

#1870000
1aaaaa
b1011101 aaaab
r0.1858479976654053 aaaad
1aaaae

#1875000
0aaaaa

#1880000
1aaaaa
0aaaae

#1885000
0aaaaa

#1890000
1aaaaa
b1011110 aaaab
r-0.3717629909515381 aaaad
1aaaae

#1895000
0aaaaa

#1900000
1aaaaa
0aaaae

#1905000
0aaaaa

#1910000
1aaaaa
b1011111 aaaab
r0.04989920184016228 aaaad
1aaaae

#1915000
0aaaaa

#1920000
1aaaaa
0aaaae

#1925000
0aaaaa

#1930000
1aaaaa
b1100000 aaaab
r0.0864017978310585 aaaad
1aaaae

#1935000
0aaaaa

#1940000
1aaaaa
0aaaae

#1945000
0aaaaa

#1950000
1aaaaa
b1100001 aaaab
r0.1397580057382584 aaaad
1aaaae

#1955000
0aaaaa

#1960000
1aaaaa
0aaaae

#1965000
0aaaaa

#1970000
1aaaaa
b1100010 aaaab
r-0.003110900055617094 aaaad
1aaaae

#1975000
0aaaaa

#1980000
1aaaaa
0aaaae

#1985000
0aaaaa

#1990000
1aaaaa
b1100011 aaaab
r-0.1660670042037964 aaaad
1aaaae

#1995000
0aaaaa

#2000000
1aaaaa
0aaaae

#2005000
0aaaaa

#2010000
1aaaaa
b1100100 aaaab
r0.1424999982118607 aaaad
1aaaae

#2015000
0aaaaa

#2020000
1aaaaa
0aaaae

#2025000
0aaaaa

#2030000
1aaaaa
b1100101 aaaab
r-0.1146690025925636 aaaad
1aaaae

#2035000
0aaaaa

#2040000
1aaaaa
0aaaae

#2045000
0aaaaa

#2050000
1aaaaa
b1100110 aaaab
r-0.1733669936656952 aaaad
1aaaae

#2055000
0aaaaa

#2060000
1aaaaa
0aaaae

#2065000
0aaaaa

#2070000
1aaaaa
b1100111 aaaab
r0.1540559977293015 aaaad
1aaaae

#2075000
0aaaaa

#2080000
1aaaaa
0aaaae

#2085000
0aaaaa

#2090000
1aaaaa
b1101000 aaaab
r-0.007392889820039272 aaaad
1aaaae

#2095000
0aaaaa

#2100000
1aaaaa
0aaaae

#2105000
0aaaaa

#2110000
1aaaaa
b1101001 aaaab
r0.07571230083703995 aaaad
1aaaae

#2115000
0aaaaa

#2120000
1aaaaa
0aaaae

#2125000
0aaaaa

#2130000
1aaaaa
b1101010 aaaab
r-0.2190870046615601 aaaad
1aaaae

#2135000
0aaaaa

#2140000
1aaaaa
0aaaae

#2145000
0aaaaa

#2150000
1aaaaa
b1101011 aaaab
r0.2639650106430054 aaaad
1aaaae

#2155000
0aaaaa

#2160000
1aaaaa
0aaaae

#2165000
0aaaaa

#2170000
1aaaaa
b1101100 aaaab
r-0.1812299937009811 aaaad
1aaaae

#2175000
0aaaaa

#2180000
1aaaaa
0aaaae

#2185000
0aaaaa

#2190000
1aaaaa
b1101101 aaaab
r0.1440649926662445 aaaad
1aaaae

#2195000
0aaaaa

#2200000
1aaaaa
0aaaae

#2205000
0aaaaa

#2210000
1aaaaa
b1101110 aaaab
r-0.1080339998006821 aaaad
1aaaae

#2215000
0aaaaa

#2220000
1aaaaa
0aaaae

#2225000
0aaaaa

#2230000
1aaaaa
b1101111 aaaab
r-0.2473459988832474 aaaad
1aaaae

#2235000
0aaaaa

#2240000
1aaaaa
0aaaae

#2245000
0aaaaa

#2250000
1aaaaa
b1110000 aaaab
r-0.1446100026369095 aaaad
1aaaae

#2255000
0aaaaa

#2260000
1aaaaa
0aaaae

#2265000
0aaaaa

#2270000
1aaaaa
b1110001 aaaab
r0.1058970019221306 aaaad
1aaaae

#2275000
0aaaaa

#2280000
1aaaaa
0aaaae

#2285000
0aaaaa

#2290000
1aaaaa
b1110010 aaaab
r-0.2333350032567978 aaaad
1aaaae

#2295000
0aaaaa

#2300000
1aaaaa
0aaaae

#2305000
0aaaaa

#2310000
1aaaaa
b1110011 aaaab
r0.5645719766616821 aaaad
1aaaae

#2315000
0aaaaa

#2320000
1aaaaa
0aaaae

#2325000
0aaaaa

#2330000
1aaaaa
b1110100 aaaab
r-0.1854020059108734 aaaad
1aaaae

#2335000
0aaaaa

#2340000
1aaaaa
0aaaae

#2345000
0aaaaa

#2350000
1aaaaa
b1110101 aaaab
r0.1440230011940002 aaaad
1aaaae

#2355000
0aaaaa

#2360000
1aaaaa
0aaaae

#2365000
0aaaaa

#2370000
1aaaaa
b1110110 aaaab
r-0.250247985124588 aaaad
1aaaae

#2375000
0aaaaa

#2380000
1aaaaa
0aaaae

#2385000
0aaaaa

#2390000
1aaaaa
b1110111 aaaab
r0.5787349939346313 aaaad
1aaaae

#2395000
0aaaaa

#2400000
1aaaaa
0aaaae

#2405000
0aaaaa

#2410000
1aaaaa
b1111000 aaaab
r0.192222997546196 aaaad
1aaaae

#2415000
0aaaaa

#2420000
1aaaaa
0aaaae

#2425000
0aaaaa

#2430000
1aaaaa
b1111001 aaaab
r0.03896620124578476 aaaad
1aaaae

#2435000
0aaaaa

#2440000
1aaaaa
0aaaae

#2445000
0aaaaa

#2450000
1aaaaa
b1111010 aaaab
r-0.1488589942455292 aaaad
1aaaae

#2455000
0aaaaa

#2460000
1aaaaa
0aaaae

#2465000
0aaaaa

#2470000
1aaaaa
b1111011 aaaab
r-0.251130998134613 aaaad
1aaaae

#2475000
0aaaaa

#2480000
1aaaaa
0aaaae

#2485000
0aaaaa

#2490000
1aaaaa
b1111100 aaaab
r-0.08958099782466888 aaaad
1aaaae

#2495000
0aaaaa

#2500000
1aaaaa
0aaaae

#2505000
0aaaaa

#2510000
1aaaaa
b1111101 aaaab
r0.2754040062427521 aaaad
1aaaae

#2515000
0aaaaa

#2520000
1aaaaa
0aaaae

#2525000
0aaaaa

#2530000
1aaaaa
b1111110 aaaab
r-0.1199600026011467 aaaad
1aaaae

#2535000
0aaaaa

#2540000
1aaaaa
0aaaae

#2545000
0aaaaa

#2550000
1aaaaa
b1111111 aaaab
r-0.04872240126132965 aaaad
1aaaae

#2555000
0aaaaa

#2560000
1aaaaa
0aaaae

#2565000
0aaaaa

#2570000
1aaaaa
b10000000 aaaab
r-0.1690440028905869 aaaad
1aaaae

#2575000
0aaaaa

#2580000
1aaaaa
0aaaae

#2585000
0aaaaa

#2590000
1aaaaa
b10000001 aaaab
r-0.02712409943342209 aaaad
1aaaae

#2595000
0aaaaa

#2600000
1aaaaa
0aaaae

#2605000
0aaaaa

#2610000
1aaaaa
b10000010 aaaab
r0.09767190366983414 aaaad
1aaaae

#2615000
0aaaaa

#2620000
1aaaaa
0aaaae

#2625000
0aaaaa

#2630000
1aaaaa
b10000011 aaaab
r0.1386480033397675 aaaad
1aaaae

#2635000
0aaaaa

#2640000
1aaaaa
0aaaae

#2645000
0aaaaa

#2650000
1aaaaa
b10000100 aaaab
r-0.1214910000562668 aaaad
1aaaae

#2655000
0aaaaa

#2660000
1aaaaa
0aaaae

#2665000
0aaaaa

#2670000
1aaaaa
b10000101 aaaab
r0.1870930045843124 aaaad
1aaaae

#2675000
0aaaaa

#2680000
1aaaaa
0aaaae

#2685000
0aaaaa

#2690000
1aaaaa
b10000110 aaaab
r-0.2746979892253876 aaaad
1aaaae

#2695000
0aaaaa

#2700000
1aaaaa
0aaaae

#2705000
0aaaaa

#2710000
1aaaaa
b10000111 aaaab
r-0.1772859990596771 aaaad
1aaaae

#2715000
0aaaaa

#2720000
1aaaaa
0aaaae

#2725000
0aaaaa

#2730000
1aaaaa
b10001000 aaaab
r-0.1186020001769066 aaaad
1aaaae

#2735000
0aaaaa

#2740000
1aaaaa
0aaaae

#2745000
0aaaaa

#2750000
1aaaaa
b10001001 aaaab
r0.1851339936256409 aaaad
1aaaae

#2755000
0aaaaa

#2760000
1aaaaa
0aaaae

#2765000
0aaaaa

#2770000
1aaaaa
b10001010 aaaab
r-0.232561007142067 aaaad
1aaaae

#2775000
0aaaaa

#2780000
1aaaaa
0aaaae

#2785000
0aaaaa

#2790000
1aaaaa
b10001011 aaaab
r-0.07453429698944092 aaaad
1aaaae

#2795000
0aaaaa

#2800000
1aaaaa
0aaaae

#2805000
0aaaaa

#2810000
1aaaaa
b10001100 aaaab
r-0.2366359978914261 aaaad
1aaaae

#2815000
0aaaaa

#2820000
1aaaaa
0aaaae

#2825000
0aaaaa

#2830000
1aaaaa
b10001101 aaaab
r0.1343760043382645 aaaad
1aaaae

#2835000
0aaaaa

#2840000
1aaaaa
0aaaae

#2845000
0aaaaa

#2850000
1aaaaa
b10001110 aaaab
r0.01886489987373352 aaaad
1aaaae

#2855000
0aaaaa

#2860000
1aaaaa
0aaaae

#2865000
0aaaaa

#2870000
1aaaaa
b10001111 aaaab
r0.1629970073699951 aaaad
1aaaae

#2875000
0aaaaa

#2880000
1aaaaa
0aaaae

#2885000
0aaaaa

#2890000
1aaaaa
b10010000 aaaab
r0.2333759963512421 aaaad
1aaaae

#2895000
0aaaaa

#2900000
1aaaaa
0aaaae

#2905000
0aaaaa

#2910000
1aaaaa
b10010001 aaaab
r0.2255129963159561 aaaad
1aaaae

#2915000
0aaaaa

#2920000
1aaaaa
0aaaae

#2925000
0aaaaa

#2930000
1aaaaa
b10010010 aaaab
r-0.04538419842720032 aaaad
1aaaae

#2935000
0aaaaa

#2940000
1aaaaa
0aaaae

#2945000
0aaaaa

#2950000
1aaaaa
b10010011 aaaab
r0.1267810016870499 aaaad
1aaaae

#2955000
0aaaaa

#2960000
1aaaaa
0aaaae

#2965000
0aaaaa

#2970000
1aaaaa
b10010100 aaaab
r0.1069400012493134 aaaad
1aaaae

#2975000
0aaaaa

#2980000
1aaaaa
0aaaae

#2985000
0aaaaa

#2990000
1aaaaa
b10010101 aaaab
r-0.0545256994664669 aaaad
1aaaae

#2995000
0aaaaa

#3000000
1aaaaa
0aaaae

#3005000
0aaaaa

#3010000
1aaaaa
b10010110 aaaab
r0.05314579978585243 aaaad
1aaaae

#3015000
0aaaaa

#3020000
1aaaaa
0aaaae

#3025000
0aaaaa

#3030000
1aaaaa
b10010111 aaaab
r0.06445019692182541 aaaad
1aaaae

#3035000
0aaaaa

#3040000
1aaaaa
0aaaae

#3045000
0aaaaa

#3050000
1aaaaa
b10011000 aaaab
r-0.1474290043115616 aaaad
1aaaae

#3055000
0aaaaa

#3060000
1aaaaa
0aaaae

#3065000
0aaaaa

#3070000
1aaaaa
b10011001 aaaab
r-0.2273969948291779 aaaad
1aaaae

#3075000
0aaaaa

#3080000
1aaaaa
0aaaae

#3085000
0aaaaa

#3090000
1aaaaa
b10011010 aaaab
r-0.1874639987945557 aaaad
1aaaae

#3095000
0aaaaa

#3100000
1aaaaa
0aaaae

#3105000
0aaaaa

#3110000
1aaaaa
b10011011 aaaab
r0.2670100033283234 aaaad
1aaaae

#3115000
0aaaaa

#3120000
1aaaaa
0aaaae

#3125000
0aaaaa

#3130000
1aaaaa
b10011100 aaaab
r0.06196830049157143 aaaad
1aaaae

#3135000
0aaaaa

#3140000
1aaaaa
0aaaae

#3145000
0aaaaa

#3150000
1aaaaa
b10011101 aaaab
r-0.04841110110282898 aaaad
1aaaae

#3155000
0aaaaa

#3160000
1aaaaa
0aaaae

#3165000
0aaaaa

#3170000
1aaaaa
b10011110 aaaab
r-0.2540239989757538 aaaad
1aaaae

#3175000
0aaaaa

#3180000
1aaaaa
0aaaae

#3185000
0aaaaa

#3190000
1aaaaa
b10011111 aaaab
r-0.2089940011501312 aaaad
1aaaae

#3195000
0aaaaa

#3200000
1aaaaa
0aaaae

#3205000
0aaaaa

#3210000
1aaaaa
b10100000 aaaab
r0.01222059968858957 aaaad
1aaaae

#3215000
0aaaaa

#3220000
1aaaaa
0aaaae

#3225000
0aaaaa

#3230000
1aaaaa
b10100001 aaaab
r0.1978839933872223 aaaad
1aaaae

#3235000
0aaaaa

#3240000
1aaaaa
0aaaae

#3245000
0aaaaa

#3250000
1aaaaa
b10100010 aaaab
r0.03719079867005348 aaaad
1aaaae

#3255000
0aaaaa

#3260000
1aaaaa
0aaaae

#3265000
0aaaaa

#3270000
1aaaaa
b10100011 aaaab
r-0.1379339993000031 aaaad
1aaaae

#3275000
0aaaaa

#3280000
1aaaaa
0aaaae

#3285000
0aaaaa

#3290000
1aaaaa
b10100100 aaaab
r-0.3018769919872284 aaaad
1aaaae

#3295000
0aaaaa

#3300000
1aaaaa
0aaaae

#3305000
0aaaaa

#3310000
1aaaaa
b10100101 aaaab
r0.2248390018939972 aaaad
1aaaae

#3315000
0aaaaa

#3320000
1aaaaa
0aaaae

#3325000
0aaaaa

#3330000
1aaaaa
b10100110 aaaab
r-0.06130529940128326 aaaad
1aaaae

#3335000
0aaaaa

#3340000
1aaaaa
0aaaae

#3345000
0aaaaa

#3350000
1aaaaa
b10100111 aaaab
r-0.1184469982981682 aaaad
1aaaae

#3355000
0aaaaa

#3360000
1aaaaa
0aaaae

#3365000
0aaaaa

#3370000
1aaaaa
b10101000 aaaab
r-0.08163789659738541 aaaad
1aaaae

#3375000
0aaaaa

#3380000
1aaaaa
0aaaae

#3385000
0aaaaa

#3390000
1aaaaa
b10101001 aaaab
r0.09900850057601929 aaaad
1aaaae

#3395000
0aaaaa

#3400000
1aaaaa
0aaaae

#3405000
0aaaaa

#3410000
1aaaaa
b10101010 aaaab
r-0.08438319712877274 aaaad
1aaaae

#3415000
0aaaaa

#3420000
1aaaaa
0aaaae

#3425000
0aaaaa

#3430000
1aaaaa
b10101011 aaaab
r-0.01188409980386496 aaaad
1aaaae

#3435000
0aaaaa

#3440000
1aaaaa
0aaaae

#3445000
0aaaaa

#3450000
1aaaaa
b10101100 aaaab
r-0.008654479868710041 aaaad
1aaaae

#3455000
0aaaaa

#3460000
1aaaaa
0aaaae

#3465000
0aaaaa

#3470000
1aaaaa
b10101101 aaaab
r-0.1422650068998337 aaaad
1aaaae

#3475000
0aaaaa

#3480000
1aaaaa
0aaaae

#3485000
0aaaaa

#3490000
1aaaaa
b10101110 aaaab
r0.07440830022096634 aaaad
1aaaae

#3495000
0aaaaa

